Análise dos dados para o congresso
…
A idade pode ser centralizada em 18 anos, pois é o valor mínimo

dados <- dados %>% 
  dplyr::mutate(idade = idade - 18)

Centralizando todas as variáveis em relação à média

dados_c <- dados %>% 
  dplyr::mutate(across(idade:spaq_score, ~(.x - mean(.x, na.rm=TRUE)))) %>% 
  dplyr::mutate(sexo = ifelse(sexo == "F", .5,-.5),
                sexo = factor(sexo))
dados_c

## # A tibble: 574 x 10
##    record_id redcap_event_name   sexo    idade igi_escore ehad_depressao_escore
##        <dbl> <chr>               <fct>   <dbl>      <dbl>                 <dbl>
##  1         1 elegibilidade_arm_1 0.5    17.9        -7.12                -3.32 
##  2         2 elegibilidade_arm_1 -0.5    1.48       -1.12                 4.68 
##  3         3 elegibilidade_arm_1 -0.5   -3.82        1.88                 1.68 
##  4         8 elegibilidade_arm_1 0.5     9.28       -4.12                -1.32 
##  5        10 elegibilidade_arm_1 0.5     5.48       -7.12                -4.32 
##  6        12 elegibilidade_arm_1 0.5     3.78       -9.12                -7.32 
##  7        15 elegibilidade_arm_1 -0.5    4.98       -9.12                -2.32 
##  8        16 elegibilidade_arm_1 0.5    -6.52       -1.12                 0.679
##  9        20 elegibilidade_arm_1 -0.5   -0.524      -2.12                -8.32 
## 10        22 elegibilidade_arm_1 0.5   -17.0         1.88                -1.32 
## # ... with 564 more rows, and 4 more variables: ehad_ansiedade_escore <dbl>,
## #   aaq_score <dbl>, dbas_score <dbl>, spaq_score <dbl>
…
